<?xml version="1.0" encoding="utf-8"?>
<!-- Generator: Adobe Illustrator 19.2.1, SVG Export Plug-In . SVG Version: 6.00 Build 0)  -->
<svg version="1.1" id="Шар_1" xmlns="http://www.w3.org/2000/svg" xmlns:xlink="http://www.w3.org/1999/xlink" x="0px" y="0px"
	 viewBox="0 0 54.6 54.6" style="enable-background:new 0 0 54.6 54.6;" xml:space="preserve">
<style type="text/css">
	.st0{opacity:0.72;enable-background:new    ;}
	.st1{fill:#FFFFFF;}
	.st2{opacity:0.72;}
</style>
<title>icon-main-4</title>
<g class="st0">
	<path class="st1" d="M27.3,54.6C12.3,54.6,0,42.4,0,27.3S12.3,0,27.3,0s27.3,12.2,27.3,27.3S42.4,54.6,27.3,54.6z M27.3,1.6
		C13.1,1.6,1.6,13.1,1.6,27.3S13.1,53,27.3,53S53,41.5,53,27.3S41.5,1.6,27.3,1.6z"/>
</g>
<g class="st2">
	<g>
		<path class="st1" d="M40.4,15.7H14.2c-0.7,0-1.3,0.6-1.3,1.3v18.8c0,0.7,0.6,1.3,1.3,1.3h26.3c0.7,0,1.3-0.6,1.3-1.3V17
			C41.8,16.3,41.2,15.7,40.4,15.7L40.4,15.7z M39.8,35.1h-25V17.7h25V35.1z"/>
	</g>
	<g>
		<path class="st1" d="M12.8,39.2c0,0.4,0.3,0.7,0.7,0.7h7v-1.5h-7C13.2,38.5,12.8,38.8,12.8,39.2L12.8,39.2z"/>
	</g>
	<g>
		<path class="st1" d="M41,38.5H23.4V40H41c0.4,0,0.7-0.3,0.7-0.7S41.5,38.5,41,38.5C41,38.5,41,38.5,41,38.5L41,38.5z"/>
	</g>
	<g>
		<path class="st1" d="M22,37.7c-0.5,0-0.9,0.4-0.9,0.9v1.2c0,0.5,0.4,0.9,0.9,0.9c0.5,0,0.9-0.4,0.9-0.9v-1.2
			C22.9,38.1,22.5,37.7,22,37.7L22,37.7L22,37.7z"/>
	</g>
</g>
<g class="st2">
	<g>
		<path class="st1" d="M34.8,27.4c0,0,0,0.1,0,0.1c0,0.3,0,0.5,0,0.8c0,0.1-0.1,0.1-0.1,0.2c0,0,0,0,0,0h-0.5
			c-0.1,0-0.1-0.1-0.1-0.1c0,0,0,0,0,0c0,0,0-0.1,0-0.1c0-1.1,0-2.2,0-3.3c0-1.7,0,0,0-0.1c0-0.1,0-0.2,0.1-0.2c0,0,0,0,0.1,0h0.4
			c0.1,0,0.2,0,0.2,0.1c0,0,0,0,0,0.1c0,0,0,0.1,0,0.1c0,0.6,0,1.2,0,1.8v0.1c0.1,0,0.2,0,0.2-0.1l0.5-0.8c0.1-0.1,0.2-0.1,0.3-0.1
			h0.5h0.1c0,0,0.1,0,0.1,0.1c0,0,0,0,0,0c0,0,0,0.1-0.1,0.1l-0.6,0.8l-0.1,0.1c0.2,0.1,0.3,0.3,0.4,0.5l0.4,0.8v0.1
			c0,0.1,0,0.2-0.1,0.2h-0.6c-0.1,0-0.2-0.1-0.2-0.1c-0.1-0.2-0.2-0.4-0.3-0.6C35.3,27.5,35.1,27.4,34.8,27.4L34.8,27.4L34.8,27.4z"
			/>
	</g>
	<g>
		<path class="st1" d="M26.1,28.4c0,0.2,0,0.4,0,0.6s0,0.2,0,0.3c0,0.1,0,0.1-0.1,0.1c0,0,0,0,0,0h-0.6c-0.1,0-0.1,0-0.1-0.1
			c0,0,0,0,0,0c0,0,0-0.1,0-0.1c0-1.1,0-2.1,0-3.2c0-1.6,0-0.1,0-0.1c0-0.1,0.1-0.2,0.1-0.2c0.2-0.1,0.4-0.1,0.6-0.1
			c0.3,0,0.6,0,0.8,0c0.5,0,0.8,0.4,0.8,0.9c0,0.4,0,0.7,0,1.1c0,0.5-0.4,0.8-0.8,0.9C26.6,28.5,26.3,28.5,26.1,28.4z M26.1,27.7
			c0.2,0,0.3,0,0.5,0c0.2,0,0.3-0.1,0.3-0.3c0,0,0,0,0,0c0-0.3,0-0.5,0-0.8c0-0.2-0.1-0.3-0.3-0.3c-0.2,0-0.3,0-0.5,0
			c0,0,0,0-0.1,0.1C26.1,26.8,26.1,27.3,26.1,27.7z"/>
	</g>
	<g>
		<path class="st1" d="M18.8,25.5v0.7H20c0.2,0,0.2,0,0.2,0.2s0,0.2,0,0.3s0,0.2-0.2,0.2h-1.2v0.7h1.6c0.1,0,0.1,0.1,0.1,0.1
			c0,0.2,0,0.3,0,0.5c0,0.1-0.1,0.1-0.1,0.1l0,0h-2.3c-0.1,0-0.1-0.1-0.1-0.1c0,0,0,0,0,0c0,0,0-0.1,0-0.1c0-1,0-2.1,0-3.1
			c0-0.3,0-0.3,0.3-0.3h2.1c0.1,0,0.2,0,0.2,0.1c0,0,0,0,0,0c0,0.1,0,0.3,0,0.4c0,0.1,0,0.2-0.1,0.2c0,0,0,0,0,0L18.8,25.5
			L18.8,25.5z"/>
	</g>
	<g>
		<path class="st1" d="M23.3,26.4c0,0.4,0,0.8,0,1.1s0,0.5,0,0.7c0,0.1,0,0.2-0.1,0.2c0,0,0,0-0.1,0h-0.4c-0.1,0-0.2,0-0.2-0.1
			c0,0,0,0,0-0.1c0-0.5,0-1,0-1.5c0-0.2-0.1-0.4-0.3-0.5c-0.1,0-0.1,0-0.2,0c-0.2,0-0.2,0-0.2,0.3c0,0.5,0,1.1,0,1.6
			c0,0.2,0,0.2-0.2,0.2h-0.4c-0.1,0-0.2,0-0.2-0.1c0,0,0,0,0-0.1c0-0.7,0-1.5,0-2.2c0-0.1,0.1-0.2,0.1-0.2c0.4-0.2,0.7-0.2,1.1-0.2
			c0.2,0,0.4,0,0.6,0.1c0,0,0.1,0,0.1,0c0.4-0.1,0.7-0.2,1.1-0.1c0.4,0,0.7,0.4,0.8,0.8c0,0.1,0,0.2,0,0.3c0,0.5,0,1,0,1.5
			c0,0.2,0,0.2-0.2,0.2h-0.4c-0.2,0-0.2,0-0.2-0.2c0-0.5,0-0.9,0-1.4c0-0.2-0.1-0.4-0.3-0.5c-0.1,0-0.1,0-0.2,0L23.3,26.4z"/>
	</g>
	<g>
		<path class="st1" d="M28.8,27.2c-0.1,0.2,0,0.4,0.3,0.5c0.1,0,0.1,0,0.2,0c0.2,0,0.4-0.1,0.6-0.2c0.1-0.1,0.2-0.1,0.2-0.1
			c0,0,0,0,0,0l0.3,0.1c0.1,0,0.2,0.1,0.1,0.2c0,0,0,0.1-0.1,0.1c-0.1,0.2-0.3,0.3-0.5,0.4c-0.4,0.1-0.8,0.1-1.2,0
			c-0.3-0.1-0.6-0.4-0.6-0.8c-0.1-0.4-0.1-0.7,0-1.1c0-0.4,0.3-0.7,0.7-0.8c0.4-0.1,0.7-0.1,1.1,0c0.4,0.1,0.6,0.5,0.6,0.9
			c0,0.1,0,0.3,0,0.4c0,0.1-0.1,0.2-0.2,0.2c0,0,0,0,0,0L28.8,27.2L28.8,27.2z M28.8,26.6h0.9c0.1-0.2-0.1-0.4-0.3-0.5
			c0,0,0,0-0.1,0h-0.1c-0.2,0-0.4,0.1-0.4,0.3C28.8,26.5,28.8,26.6,28.8,26.6L28.8,26.6z"/>
	</g>
	<g>
		<path class="st1" d="M31.8,27.2c-0.1,0.2,0,0.4,0.3,0.5c0.1,0,0.1,0,0.2,0c0.2,0,0.4-0.1,0.6-0.2c0.1-0.1,0.2-0.1,0.2-0.1
			c0,0,0,0,0,0l0.3,0.1c0.1,0,0.2,0.1,0.1,0.2c0,0,0,0.1-0.1,0.1c-0.1,0.2-0.3,0.3-0.5,0.4c-0.4,0.1-0.8,0.1-1.2,0
			c-0.3-0.1-0.6-0.4-0.6-0.8c-0.1-0.4-0.1-0.7,0-1.1c0-0.4,0.3-0.7,0.7-0.8c0.4-0.1,0.7-0.1,1.1,0c0.4,0.1,0.6,0.5,0.6,0.9
			c0,0.1,0,0.3,0,0.4c0,0.1-0.1,0.2-0.2,0.2c0,0,0,0,0,0L31.8,27.2L31.8,27.2z M31.8,26.6h0.9c0.1-0.2-0.1-0.4-0.3-0.5
			c0,0,0,0-0.1,0h-0.1c-0.2,0-0.4,0.1-0.4,0.3C31.8,26.6,31.8,26.6,31.8,26.6z"/>
	</g>
</g>
</svg>
